material OpcionesOverlayMaterial
{
  technique
  {
    pass
    {
      scene_blend alpha_blend
      texture_unit
      {
	alpha_op_ex modulate src_manual src_texture 1
	texture Opciones.png
      }
    }
 }
}
